…
**There's nothing like missing values to mess up a model.** But you have to work with what you get. The data set is not often coded with NAs where data would be for an observation of a variable, sometimes it is blank.

For that, we have `complete.cases(){stats}` which will subset the data to include only which rows have *no* missing data.

More insidious is the case where observations for a dichotomous variable, that can take on only one of two possible values. These may be coded as TRUE/FALSE or 1/0. And, of course, if the coding is complete, there are no *missing* values. That doesn't mean that you have what you need.

Recently, I worked on a largish data set that ended up as approximately 22K records with 38 variables. The problem arose in a set of 16 independent dichotomous variables -- call them $Var1 ... Var16$ -- being used to model a binary response variable. This part of the data looks like

    hidden
    # A tibble: 22,471 x 16
        VAR1  VAR2  VAR3  VAR4  VAR5  VAR6  VAR7  VAR8  VAR9 VAR10 VAR11 VAR12 VAR13 VAR14 VAR15 VAR16
       <dbl> <dbl> <dbl> <dbl> <dbl> <dbl> <dbl> <dbl> <dbl> <dbl> <dbl> <dbl> <dbl> <dbl> <dbl> <dbl>
     1     0     0     0     0     0     0     0     0     0     0     0     0     0     0     0     0
     2     0     0     0     0     0     0     0     0     0     0     0     0     0     0     0     0
     3     0     0     0     0     0     0     0     0     0     0     0     0     0     0     0     0
     4     0     0     0     0     0     0     0     0     0     0     0     0     0     0     0     0
     5     0     0     0     0     0     0     0     1     0     0     0     0     0     0     0     0
     6     0     0     0     0     0     0     0     1     0     0     0     0     0     0     0     0
     7     0     0     1     0     0     1     0     0     0     0     0     0     0     0     0     0
     8     0     0     0     0     0     0     0     0     0     0     0     0     0     0     0     0
     9     0     0     0     0     0     0     0     0     0     0     0     0     0     0     0     0
    10     0     0     1     0     0     0     1     0     0     0     0     0     0     0     0     0
    # … with 22,461 more rows
…
Next, we apply the `sumCols()` function to add up the entries for the rows and assign it.

    row_count <- rowSums(m)
    head(row_count)
    [1] 0 0 0 0 1 1
    length(row_count)
    [1] 22471
    

the result is a numeric vector, conveniently of the same length as the number of rows in the tibble, and in the same order.

    summed_up <- as_tibble(cbind(hidden, row_count))
    summed_up
    # A tibble: 22,471 x 17
        VAR1  VAR2  VAR3  VAR4  VAR5  VAR6  VAR7  VAR8  VAR9 VAR10 VAR11 VAR12 VAR13 VAR14 VAR15 VAR16 row_count
       <dbl> <dbl> <dbl> <dbl> <dbl> <dbl> <dbl> <dbl> <dbl> <dbl> <dbl> <dbl> <dbl> <dbl> <dbl> <dbl>     <dbl>
     1     0     0     0     0     0     0     0     0     0     0     0     0     0     0     0     0         0
     2     0     0     0     0     0     0     0     0     0     0     0     0     0     0     0     0         0
     3     0     0     0     0     0     0     0     0     0     0     0     0     0     0     0     0         0
     4     0     0     0     0     0     0     0     0     0     0     0     0     0     0     0     0         0
     5     0     0     0     0     0     0     0     1     0     0     0     0     0     0     0     0         1
     6     0     0     0     0     0     0     0     1     0     0     0     0     0     0     0     0         1
     7     0     0     1     0     0     1     0     0     0     0     0     0     0     0     0     0         2
     8     0     0     0     0     0     0     0     0     0     0     0     0     0     0     0     0         0
     9     0     0     0     0     0     0     0     0     0     0     0     0     0     0     0     0         0
    10     0     0     1     0     0     0     1     0     0     0     0     0     0     0     0     0         2
    # … with 22,461 more row
…
The bad news is that nearly half of the data are of no help, the 10K rows with none of the sixteen variables having a positive value. The sad news is the 3K rows with multiple variables that we're not ready to tackle yet.

    summed_up %>% filter(row_count > 1)
    # A tibble: 3,039 x 17
        VAR1  VAR2  VAR3  VAR4  VAR5  VAR6  VAR7  VAR8  VAR9 VAR10 VAR11 VAR12 VAR13 VAR14 VAR15 VAR16 row_count
       <dbl> <dbl> <dbl> <dbl> <dbl> <dbl> <dbl> <dbl> <dbl> <dbl> <dbl> <dbl> <dbl> <dbl> <dbl> <dbl>     <dbl>
     1     0     0     1     0     0     1     0     0     0     0     0     0     0     0     0     0         2
     2     0     0     1     0     0     0     1     0     0     0     0     0     0     0     0     0         2
     3     0     0     1     0     0     1     0     0     0     0     0     0     0     0     0     0         2
     4     0     0     0     0     0     1     0     0     1     0     0     0     0     0     0     0         2
     5     0     0     1     0     0     1     0     0     0     0     0     0     0     0     0     0         2
     6     0     0     1     0     0     0     0     0     0     0     0     0     0     0     1     0         2
     7     0     1     0     0     0     0     0     0     0     0     1     0     0     0     0     0         2
     8     0     0     1     0     0     1     0     0     0     0     0     0     0     0     0     0         2
     9     0     0     1     0     0     1     0     0     0     0     0     0     0     0     0     0         2
    10     0     0     1     0     0     0     0     1     0     0     0     0     0     0     0     0         2
    # … with 3,029 more rows
    
Now that we know where we stand, we can `filter` to get the 9K rows with a single variable only. We bind the `row_count` variable to the original tibble.

    row_totals <- summed_up %>% select(row_count)
    singlets <- bind_cols(hidden, row_totals) %>% filter(row_count == 1)
    singlets
    # A tibble: 9,349 x 17
        VAR1  VAR2  VAR3  VAR4  VAR5  VAR6  VAR7  VAR8  VAR9 VAR10 VAR11 VAR12 VAR13 VAR14 VAR15 VAR16 row_count
       <dbl> <dbl> <dbl> <dbl> <dbl> <dbl> <dbl> <dbl> <dbl> <dbl> <dbl> <dbl> <dbl> <dbl> <dbl> <dbl>     <dbl>
     1     0     0     0     0     0     0     0     1     0     0     0     0     0     0     0     0         1
     2     0     0     0     0     0     0     0     1     0     0     0     0     0     0     0     0         1
     3     0     0     0     0     0     0     0     0     0     0     0     0     0     0     1     0         1
     4     0     0     0     0     0     0     0     0     0     0     0     0     1     0     0     0         1
     5     0     0     0     0     0     1     0     0     0     0     0     0     0     0     0     0         1
     6     0     0     1     0     0     0     0     0     0     0     0     0     0     0     0     0         1
     7     0     0     1     0     0     0     0     0     0     0     0     0     0     0     0     0         1
     8     0     0     1     0     0     0     0     0     0     0     0     0     0     0     0     0         1
     9     0     0     1     0     0     0     0     0     0     0     0     0     0     0     0     0         1
    10     0     0     1     0     0     0     0     0     0     0     0     0     0     0     0     0         1
    # … with 9,339 more rows
…
